{
  "content": [
    {
      "id": 107,
      "name": "Вебинар от hh.tu \"Аналитика подбора на hh.ru: основные метрики эффективного подбора\"",
      "description": "Вебинар от hh.tu \"Аналитика подбора на hh.ru: основные метрики эффективного подбора\" \nСпикер – Строганова Анна, тренер по работе с сервисами hh.ru подробно разберет:\nНовые реалии рынка труда\nМетрики эффективного подбора\nВлияние контента вакансии на ее эффективность\nКак искать кандидатов результативнее\n \nПосле воркшопа участники смогут получить ответы от эксперта на интересующие их вопросы.",
      "begin": [
        2023,
        4,
        14,
        16,
        0
      ],
      "end": [
        2023,
        4,
        14,
        14,
        0
      ],
      "canFollow": true,
      "address": "Онлайн",
      "speakerName": "Кремзюк Е.П.",
      "speakerEmail": "copp42@yandex.ru",
      "speakerPhone": "89059112004",
      "image": {
        "id": 422,
        "created": null,
        "updated": null,
        "status": null,
        "name": "HVKS7kgDi8M-1677644182220.jpg",
        "filename": null,
        "src": "/images/HVKS7kgDi8M-1677644182220.jpg",
        "file": null
      },
      "targetGroup": {
        "id": 1,
        "created": 1659323243262,
        "updated": null,
        "status": null,
        "name": "Студенты"
      },
      "seats": 3000,
      "bookedSeats": 0,
      "type": {
        "id": 15,
        "created": 1677643448713,
        "updated": null,
        "status": null,
        "name": "Вебинар"
      }
    },
    {
      "id": 74,
      "name": "Мастер-класс \"Образовательная робототехника\", \"Программирование\", \"Видеопроизводство\"",
      "description": "Мастер-класс \"Образовательная робототехника\", \"Программирование\", \"Видеопроизводство\"",
      "begin": [
        2023,
        3,
        29,
        12,
        0
      ],
      "end": [
        2023,
        3,
        29,
        13,
        0
      ],
      "canFollow": true,
      "address": "г. Кемерово, ул. Павленко, 1а",
      "speakerName": "Позднякова Ольга Георгиевна ",
      "speakerEmail": "copp42@yandex.ru",
      "speakerPhone": "+73842571120",
      "image": {
        "id": 342,
        "created": null,
        "updated": null,
        "status": null,
        "name": "IMG_0514-1675325012229.jpg",
        "filename": null,
        "src": "/images/IMG_0514-1675325012229.jpg",
        "file": null
      },
      "targetGroup": {
        "id": 2,
        "created": 1659323247230,
        "updated": 1676538906260,
        "status": null,
        "name": "Обучающиеся общеобразовательных учреждений 6-7 классы"
      },
      "seats": 30,
      "bookedSeats": 0,
      "type": {
        "id": 7,
        "created": 1659404180146,
        "updated": null,
        "status": null,
        "name": "Мастер - класс"
      }
    },
    {
      "id": 117,
      "name": "Программа профильного интенсива \"Формула успеха\"",
      "description": "Программа профильного интенсива \"Формула успеха\" на базе Центра опережающей профессиональной подготовки Кузбасса (ЦОПП 42) приглашает учащихся 9 классов общеобразовательных учреждений города Кемерово на презентационную сессию",
      "begin": [
        2023,
        3,
        28,
        9,
        0
      ],
      "end": [
        2023,
        3,
        28,
        12,
        30
      ],
      "canFollow": true,
      "address": "ЦОПП 42, ГПОУ \"Сибирский политехнический техникум\", Павленко 1а",
      "speakerName": "Позднякова О.Г.",
      "speakerEmail": "copp42@yandex.ru",
      "speakerPhone": "+7 384 257-11-20",
      "image": {
        "id": 449,
        "created": null,
        "updated": null,
        "status": null,
        "name": "IMG_3580-1678676441355.jpg",
        "filename": null,
        "src": "/images/IMG_3580-1678676441355.jpg",
        "file": null
      },
      "targetGroup": {
        "id": 3,
        "created": 1659323250898,
        "updated": 1676538923067,
        "status": null,
        "name": "Обучающиеся общеобразовательных учреждений 8-11 классы"
      },
      "seats": 25,
      "bookedSeats": 0,
      "type": {
        "id": 17,
        "created": 1678759113979,
        "updated": null,
        "status": null,
        "name": "Интенсив"
      }
    },
    {
      "id": 118,
      "name": "Программа профильного интенсива \"Формула успеха\", день 2",
      "description": "Программа профильного интенсива \"Формула успеха\" на базе Центра опережающей профессиональной подготовки Кузбасса (ЦОПП 42) приглашает учащихся 9 классов общеобразовательных учреждений города Кемерово на презентационную сессию, день 2",
      "begin": [
        2023,
        3,
        28,
        9,
        0
      ],
      "end": [
        2023,
        3,
        29,
        13,
        0
      ],
      "canFollow": true,
      "address": "ЦОПП 42, ГПОУ \"Сибирский политехнический техникум\", Павленко 1а",
      "speakerName": "Позднякова О.Г.",
      "speakerEmail": "copp42@yandex.ru",
      "speakerPhone": "+7 384 257-11-20",
      "image": {
        "id": 448,
        "created": null,
        "updated": null,
        "status": null,
        "name": "CX94Cd-Qids-1678676418037.jpg",
        "filename": null,
        "src": "/images/CX94Cd-Qids-1678676418037.jpg",
        "file": null
      },
      "targetGroup": {
        "id": 3,
        "created": 1659323250898,
        "updated": 1676538923067,
        "status": null,
        "name": "Обучающиеся общеобразовательных учреждений 8-11 классы"
      },
      "seats": 30,
      "bookedSeats": 0,
      "type": {
        "id": 17,
        "created": 1678759113979,
        "updated": null,
        "status": null,
        "name": "Интенсив"
      }
    },
    {
      "id": 80,
      "name": "Мастер-класс для школьников \"Правоохранительная деятельность\"",
      "description": "Мастер-класс для школьников \" Правоохранительная деятельность\"",
      "begin": [
        2023,
        3,
        27,
        12,
        0
      ],
      "end": [
        2023,
        3,
        27,
        13,
        0
      ],
      "canFollow": true,
      "address": "г. Кемерово, ул. Павленко, 1а",
      "speakerName": "Позднякова Ольга Георгиевна ",
      "speakerEmail": "copp42@yandex.ru",
      "speakerPhone": "+73842571120",
      "image": {
        "id": 349,
        "created": null,
        "updated": null,
        "status": null,
        "name": "IMG_1633-1675325167868.JPG",
        "filename": null,
        "src": "/images/IMG_1633-1675325167868.JPG",
        "file": null
      },
      "targetGroup": {
        "id": 2,
        "created": 1659323247230,
        "updated": 1676538906260,
        "status": null,
        "name": "Обучающиеся общеобразовательных учреждений 6-7 классы"
      },
      "seats": 10,
      "bookedSeats": 0,
      "type": {
        "id": 7,
        "created": 1659404180146,
        "updated": null,
        "status": null,
        "name": "Мастер - класс"
      }
    },
    {
      "id": 92,
      "name": "Мастер-класс для школьников \"Спасательные работы и Пожарная безопасность\"",
      "description": "Мастер-класс для школьников \"Спасательные работы и Пожарная безопасность\"",
      "begin": [
        2023,
        3,
        27,
        12,
        0
      ],
      "end": [
        2023,
        3,
        27,
        13,
        0
      ],
      "canFollow": true,
      "address": "г. Кемерово, ул. Павленко, 1а",
      "speakerName": "Позднякова Ольга Георгиевна ",
      "speakerEmail": "copp42@yandex.ru",
      "speakerPhone": "+73842571120",
      "image": {
        "id": 356,
        "created": null,
        "updated": null,
        "status": null,
        "name": "IMG_9230-1675326668005.jpg",
        "filename": null,
        "src": "/images/IMG_9230-1675326668005.jpg",
        "file": null
      },
      "targetGroup": {
        "id": 2,
        "created": 1659323247230,
        "updated": 1676538906260,
        "status": null,
        "name": "Обучающиеся общеобразовательных учреждений 6-7 классы"
      },
      "seats": 23,
      "bookedSeats": 0,
      "type": {
        "id": 7,
        "created": 1659404180146,
        "updated": null,
        "status": null,
        "name": "Мастер - класс"
      }
    },
    {
      "id": 106,
      "name": "Вебинар от hh.ru \"HR-аналитика как инструмент для развития бизнеса\"",
      "description": "На вебинаре Спикер Александр Ботвин, старший HR-аналитик Yandex.Market подробно разберет:\n\nЗачем бизнесу работать с данными\nЗачем аналитика в HR\nГде и как HR-аналитика применима. Какие задачи решает\nИнструменты аналитика\n\nПосле воркшопа участники смогут получить ответы от эксперта на интересующие их вопросы.",
      "begin": [
        2023,
        3,
        24,
        16,
        0
      ],
      "end": [
        2023,
        3,
        24,
        17,
        0
      ],
      "canFollow": true,
      "address": "Онлайн",
      "speakerName": "Кремзюк Е.П.",
      "speakerEmail": "copp42@yandex.ru",
      "speakerPhone": "89059112004",
      "image": {
        "id": 419,
        "created": null,
        "updated": null,
        "status": null,
        "name": "MR5swKc5ADQ-1677643920542.jpg",
        "filename": null,
        "src": "/images/MR5swKc5ADQ-1677643920542.jpg",
        "file": null
      },
      "targetGroup": {
        "id": 1,
        "created": 1659323243262,
        "updated": null,
        "status": null,
        "name": "Студенты"
      },
      "seats": 3000,
      "bookedSeats": 0,
      "type": {
        "id": 15,
        "created": 1677643448713,
        "updated": null,
        "status": null,
        "name": "Вебинар"
      }
    },
    {
      "id": 77,
      "name": "Мероприятия по трудоустройству и самозанятости подростков ",
      "description": "Мероприятия по трудоустройству и самозанятости подростков ",
      "begin": [
        2023,
        3,
        23,
        12,
        0
      ],
      "end": [
        2023,
        3,
        23,
        13,
        0
      ],
      "canFollow": true,
      "address": "г. Кемерово, ул. Павленко, 1а",
      "speakerName": "Позднякова Ольга Георгиевна ",
      "speakerEmail": "copp42@yandex.ru",
      "speakerPhone": "+73842571120",
      "image": {
        "id": 347,
        "created": null,
        "updated": null,
        "status": null,
        "name": "IMG_9151-1675325124787.jpg",
        "filename": null,
        "src": "/images/IMG_9151-1675325124787.jpg",
        "file": null
      },
      "targetGroup": {
        "id": 2,
        "created": 1659323247230,
        "updated": 1676538906260,
        "status": null,
        "name": "Обучающиеся общеобразовательных учреждений 6-7 классы"
      },
      "seats": 24,
      "bookedSeats": 0,
      "type": {
        "id": 7,
        "created": 1659404180146,
        "updated": null,
        "status": null,
        "name": "Мастер - класс"
      }
    },
    {
      "id": 114,
      "name": "Олимпиада по обществознанию",
      "description": "Этап городской олимпиады для студентов СПО по обществознанию ",
      "begin": [
        2023,
        3,
        23,
        10,
        0
      ],
      "end": [
        2023,
        3,
        23,
        14,
        0
      ],
      "canFollow": true,
      "address": "ЦОПП 42, ГПОУ \"Сибирский политехнический техникум\", Павленко 1а",
      "speakerName": "Старцев А.В.",
      "speakerEmail": "copp42@yandex.ru",
      "speakerPhone": "+7 384 257-11-20",
      "image": {
        "id": 445,
        "created": null,
        "updated": null,
        "status": null,
        "name": "n9QoVt0PuJU-1678416345999.jpg",
        "filename": null,
        "src": "/images/n9QoVt0PuJU-1678416345999.jpg",
        "file": null
      },
      "targetGroup": {
        "id": 1,
        "created": 1659323243262,
        "updated": null,
        "status": null,
        "name": "Студенты"
      },
      "seats": 30,
      "bookedSeats": 0,
      "type": {
        "id": 16,
        "created": 1678759083732,
        "updated": null,
        "status": null,
        "name": "Олимпиада"
      }
    },
    {
      "id": 73,
      "name": "Мастер-класс \"Образовательная робототехника\", \"Программирование\", \"Видеопроизводство\"",
      "description": "Мастер-класс \"Образовательная робототехника\", \"Программирование\", \"Видеопроизводство\"",
      "begin": [
        2023,
        3,
        22,
        12,
        0
      ],
      "end": [
        2023,
        3,
        22,
        13,
        0
      ],
      "canFollow": true,
      "address": "г. Кемерово, ул. Павленко, 1а",
      "speakerName": "Позднякова Ольга Георгиевна ",
      "speakerEmail": "copp42@yandex.ru",
      "speakerPhone": "+73842571120",
      "image": {
        "id": 344,
        "created": null,
        "updated": null,
        "status": null,
        "name": "IMG_8781-1675325047637.JPEG",
        "filename": null,
        "src": "/images/IMG_8781-1675325047637.JPEG",
        "file": null
      },
      "targetGroup": {
        "id": 2,
        "created": 1659323247230,
        "updated": 1676538906260,
        "status": null,
        "name": "Обучающиеся общеобразовательных учреждений 6-7 классы"
      },
      "seats": 30,
      "bookedSeats": 0,
      "type": {
        "id": 7,
        "created": 1659404180146,
        "updated": null,
        "status": null,
        "name": "Мастер - класс"
      }
    },
    {
      "id": 113,
      "name": "Заседание проектного офиса Клуба образовательных стратегов",
      "description": "\nЦель проекта - обучение управленческих команд ПОО Кузбасса, повышение профессионально- образовательного уровня руководителей образовательных организаций СПО, развитие навыков в управлении образовательной организацией.\nКонсультативная поддержка участникам проектов.\nПриглашаем в клуб образовательных стратегов, регистрации на нашей ЦИФРОВОЙ ПЛАТФОРМЕ ЦОПП https://platform.copp42.ru/",
      "begin": [
        2023,
        3,
        17,
        11,
        0
      ],
      "end": [
        2023,
        3,
        17,
        12,
        0
      ],
      "canFollow": true,
      "address": "https://jazz.sber.ru/7l0abj@jazz.sber.ru?psw=OAsUEUdSHBRaGxMHGEYLB1URDg",
      "speakerName": "Кремзюк Е.П.",
      "speakerEmail": "copp42@yandex.ru",
      "speakerPhone": "89059112004",
      "image": {
        "id": 442,
        "created": null,
        "updated": null,
        "status": null,
        "name": "IMG_3580-1678160840235.jpg",
        "filename": null,
        "src": "/images/IMG_3580-1678160840235.jpg",
        "file": null
      },
      "targetGroup": {
        "id": 5,
        "created": 1659323258969,
        "updated": null,
        "status": null,
        "name": "Взрослое население/работающий"
      },
      "seats": 50,
      "bookedSeats": 0,
      "type": {
        "id": 8,
        "created": 1659404184790,
        "updated": null,
        "status": null,
        "name": "Презентационная сессия"
      }
    },
    {
      "id": 115,
      "name": "Кадры настоящего и будущего: востребованные на рынке труда профессии, квалификации, компетенции и навыки",
      "description": "В формате онлайн в рамках VII Санкт-Петербургского Международного Форума труда состоится круглый стол ФГБУ «ВНИИ труда» Минтруда России «Кадры настоящего и будущего: востребованные на рынке труда профессии, квалификации, компетенции и навыки».\n\nВОПРОСЫ ДЛЯ ОБСУЖДЕНИЯ:\n\n• Изменения, произошедшие в 2022 году в профессиональных сегментах рынка труда\n\n• Современные подходы к определению востребованных на рынке труда профессий, квалификаций, компетенций и навыков\n\n• Новые и развивающиеся профессии: тенденции в современных реалиях\n\n• Мониторинг публичного рынка труда: от вакансий к профессиональным компетенциям\n\n• Мониторинг востребованности профессий на рынке труда субъектов РФ\n\n• Проблемы синхронизации потребностей работодателей в профессиональных кадрах и деятельности системы профессионального образования\n\n• Профессиональные стандарты - инструмент синхронизации и требований работодателей к квалифицированным кадрам и системы профессионального образования\n\n• Оценка компетенций – новые возможности\n\nИнформация о спикерах данного круглого стола находится по ссылке: https://labourforum.ru/programmy/?sessionId=42625",
      "begin": [
        2023,
        3,
        17,
        11,
        0
      ],
      "end": [
        2023,
        3,
        17,
        15,
        0
      ],
      "canFollow": true,
      "address": "https://teams.microsoft.com/l/meetup-join/19%3ameeting_MzZkNjE3ZmYtODEyOS00MTM2LWFmMzUtMzk5MTI1YjQwYTA0%40thread.v2/0?context=%7b%22Tid%22%3a%223ab35483-dd23-42fd-9ffb-fd27cccbd32d%22%2c%22Oid%22%3a%2256704ec8-f645-41b4-b6b6-2e30f859190e%22%7d",
      "speakerName": "Кремзюк Е.П.",
      "speakerEmail": "copp42@yandex.ru",
      "speakerPhone": "+7 384 257-11-20",
      "image": null,
      "targetGroup": {
        "id": 6,
        "created": 1659323263723,
        "updated": null,
        "status": null,
        "name": "Все"
      },
      "seats": 30,
      "bookedSeats": 0,
      "type": {
        "id": 15,
        "created": 1677643448713,
        "updated": null,
        "status": null,
        "name": "Вебинар"
      }
    },
    {
      "id": 72,
      "name": "Мастер-класс \"Образовательная робототехника\", \"Программирование\", \"Видеопроизводство\"",
      "description": "Мастер-класс \"Образовательная робототехника\", \"Программирование\", \"Видеопроизводство\"",
      "begin": [
        2023,
        3,
        15,
        12,
        0
      ],
      "end": [
        2023,
        3,
        15,
        13,
        0
      ],
      "canFollow": true,
      "address": "г. Кемерово, ул. Павленко, 1а",
      "speakerName": "Позднякова Ольга Георгиевна ",
      "speakerEmail": "copp42@yandex.ru",
      "speakerPhone": "+73842571120",
      "image": {
        "id": 341,
        "created": null,
        "updated": null,
        "status": null,
        "name": "IMG_8591-1675324953389.JPEG",
        "filename": null,
        "src": "/images/IMG_8591-1675324953389.JPEG",
        "file": null
      },
      "targetGroup": {
        "id": 2,
        "created": 1659323247230,
        "updated": 1676538906260,
        "status": null,
        "name": "Обучающиеся общеобразовательных учреждений 6-7 классы"
      },
      "seats": 30,
      "bookedSeats": 0,
      "type": {
        "id": 7,
        "created": 1659404180146,
        "updated": null,
        "status": null,
        "name": "Мастер - класс"
      }
    },
    {
      "id": 110,
      "name": "Тренинг наставников \"Моя карьера\", день 3",
      "description": "3 день тренинга наставников \"Моя карьера\"",
      "begin": [
        2023,
        3,
        15,
        10,
        0
      ],
      "end": [
        2023,
        3,
        15,
        16,
        0
      ],
      "canFollow": true,
      "address": "ЦОПП 42, ГПОУ \"Сибирский политехнический техникум\", Павленко 1а",
      "speakerName": "Позднякова О.Г.",
      "speakerEmail": "copp42@yandex.ru",
      "speakerPhone": "+7 384 257-11-20",
      "image": {
        "id": 465,
        "created": null,
        "updated": null,
        "status": null,
        "name": "7424e4c3-65bf-4520-8e77-5bfcb9f0ba49-1679026856106.jpg",
        "filename": null,
        "src": "/images/7424e4c3-65bf-4520-8e77-5bfcb9f0ba49-1679026856106.jpg",
        "file": null
      },
      "targetGroup": {
        "id": 5,
        "created": 1659323258969,
        "updated": null,
        "status": null,
        "name": "Взрослое население/работающий"
      },
      "seats": 26,
      "bookedSeats": 0,
      "type": {
        "id": 11,
        "created": 1659404200207,
        "updated": null,
        "status": null,
        "name": "Тренинг"
      }
    },
    {
      "id": 111,
      "name": "Заключительный день тренинга \"Моя карьера\"",
      "description": "4 день тренинга наставников \"Моя карьера\"",
      "begin": [
        2023,
        3,
        15,
        10,
        0
      ],
      "end": [
        2023,
        3,
        15,
        14,
        30
      ],
      "canFollow": true,
      "address": "ЦОПП 42, ГПОУ \"Сибирский политехнический техникум\", Павленко 1а",
      "speakerName": "Позднякова О.Г.",
      "speakerEmail": "copp42@yandex.ru",
      "speakerPhone": "+7 384 257-11-20",
      "image": {
        "id": 466,
        "created": null,
        "updated": null,
        "status": null,
        "name": "0e1def8e-1f6e-4bc9-bfa4-c00d67c77602-1679026865118.jpg",
        "filename": null,
        "src": "/images/0e1def8e-1f6e-4bc9-bfa4-c00d67c77602-1679026865118.jpg",
        "file": null
      },
      "targetGroup": {
        "id": 5,
        "created": 1659323258969,
        "updated": null,
        "status": null,
        "name": "Взрослое население/работающий"
      },
      "seats": 30,
      "bookedSeats": 0,
      "type": {
        "id": 11,
        "created": 1659404200207,
        "updated": null,
        "status": null,
        "name": "Тренинг"
      }
    },
    {
      "id": 119,
      "name": "Первый региональный чемпионат Первой профессии\"Лаборант химического анализа\"",
      "description": "Первый региональный чемпионат Первой профессии\"Лаборант химического анализа\"",
      "begin": [
        2023,
        3,
        14,
        14,
        0
      ],
      "end": [
        2023,
        3,
        14,
        17,
        0
      ],
      "canFollow": true,
      "address": "ЦОПП 42, ГПОУ \"Сибирский политехнический техникум\", Павленко 1а",
      "speakerName": "Кремзюк Е.П.",
      "speakerEmail": "copp42@yandex.ru",
      "speakerPhone": "+7 384 257-11-20",
      "image": null,
      "targetGroup": {
        "id": 3,
        "created": 1659323250898,
        "updated": 1676538923067,
        "status": null,
        "name": "Обучающиеся общеобразовательных учреждений 8-11 классы"
      },
      "seats": 97,
      "bookedSeats": 0,
      "type": {
        "id": 13,
        "created": 1659404214501,
        "updated": null,
        "status": null,
        "name": "Квиз"
      }
    },
    {
      "id": 120,
      "name": "Вебинар по вопросу определения стажировочных площадок \"Профессионалитет\" для руководителей ЦОПП",
      "description": "Вебинар по вопросу определения стажировочных площадок в рамках реализации федерального проекта \"Профессионалитет\" в субъектах Российской Федерации для руководителей ЦОПП.",
      "begin": [
        2023,
        3,
        14,
        14,
        0
      ],
      "end": [
        2023,
        3,
        14,
        15,
        0
      ],
      "canFollow": true,
      "address": "Онлайн",
      "speakerName": "Кремзюк Е.П.",
      "speakerEmail": "copp42@yandex.ru",
      "speakerPhone": "+7 384 257-11-20",
      "image": null,
      "targetGroup": {
        "id": 6,
        "created": 1659323263723,
        "updated": null,
        "status": null,
        "name": "Все"
      },
      "seats": 5,
      "bookedSeats": 0,
      "type": {
        "id": 15,
        "created": 1677643448713,
        "updated": null,
        "status": null,
        "name": "Вебинар"
      }
    },
    {
      "id": 109,
      "name": "Тренинг наставников \"Моя карьера\", день 2 ",
      "description": "2 день тренинга наставников \"Моя карьера\"",
      "begin": [
        2023,
        3,
        14,
        10,
        0
      ],
      "end": [
        2023,
        3,
        14,
        16,
        0
      ],
      "canFollow": true,
      "address": "ЦОПП 42, ГПОУ \"Сибирский политехнический техникум\", Павленко 1а",
      "speakerName": "Позднякова О.Г.",
      "speakerEmail": "copp42@yandex.ru",
      "speakerPhone": "+7 384 257-11-20",
      "image": {
        "id": 464,
        "created": null,
        "updated": null,
        "status": null,
        "name": "47b350ef-4b88-44e7-9e5d-d2ecb36e8f2c-1679026810200.jpg",
        "filename": null,
        "src": "/images/47b350ef-4b88-44e7-9e5d-d2ecb36e8f2c-1679026810200.jpg",
        "file": null
      },
      "targetGroup": {
        "id": 5,
        "created": 1659323258969,
        "updated": null,
        "status": null,
        "name": "Взрослое население/работающий"
      },
      "seats": 26,
      "bookedSeats": 0,
      "type": {
        "id": 11,
        "created": 1659404200207,
        "updated": null,
        "status": null,
        "name": "Тренинг"
      }
    },
    {
      "id": 108,
      "name": "Тренинг наставников \"Моя карьера\"",
      "description": "Тренинг наставников \"Моя карьера\"",
      "begin": [
        2023,
        3,
        13,
        10,
        0
      ],
      "end": [
        2023,
        3,
        13,
        15,
        30
      ],
      "canFollow": true,
      "address": "ЦОПП 42, ГПОУ \"Сибирский политехнический техникум\", Павленко 1а",
      "speakerName": "Позднякова О.Г.",
      "speakerEmail": "copp42@yandex.ru",
      "speakerPhone": "+7 384 257-11-20",
      "image": {
        "id": 463,
        "created": null,
        "updated": null,
        "status": null,
        "name": "4a4e9935-8d87-4d18-ad45-3ca10169d16e-1679026797059.jpg",
        "filename": null,
        "src": "/images/4a4e9935-8d87-4d18-ad45-3ca10169d16e-1679026797059.jpg",
        "file": null
      },
      "targetGroup": {
        "id": 5,
        "created": 1659323258969,
        "updated": null,
        "status": null,
        "name": "Взрослое население/работающий"
      },
      "seats": 26,
      "bookedSeats": 0,
      "type": {
        "id": 11,
        "created": 1659404200207,
        "updated": null,
        "status": null,
        "name": "Тренинг"
      }
    },
    {
      "id": 116,
      "name": "Обеспечение безопасности персональных данных при обработке в информационных системах",
      "description": "Приглашаем сотрудников ПОО пройти курс \"Обеспечение безопасности персональных данных при обработке в информационных системах\" рассчитанный на 72 часа, с практико-ориентированными занятиями. Занятия будут проходить по пятницам, на базе Центра опережающей профессиональной подготовки (ЦОПП 42 Кузбасс)",
      "begin": [
        2023,
        3,
        13,
        0,
        0
      ],
      "end": [
        2023,
        3,
        31,
        23,
        59
      ],
      "canFollow": true,
      "address": "ЦОПП 42, ГПОУ \"Сибирский политехнический техникум\", Павленко 1а",
      "speakerName": "Позднякова О.Г.",
      "speakerEmail": "copp42@yandex.ru",
      "speakerPhone": "+7 384 257-11-20",
      "image": null,
      "targetGroup": {
        "id": 5,
        "created": 1659323258969,
        "updated": null,
        "status": null,
        "name": "Взрослое население/работающий"
      },
      "seats": 100,
      "bookedSeats": 0,
      "type": {
        "id": 18,
        "created": 1678759168035,
        "updated": null,
        "status": null,
        "name": "Курс"
      }
    }
  ],
  "pageable": {
    "sort": {
      "empty": false,
      "sorted": true,
      "unsorted": false
    },
    "offset": 0,
    "pageNumber": 0,
    "pageSize": 20,
    "paged": true,
    "unpaged": false
  },
  "last": false,
  "totalPages": 5,
  "totalElements": 100,
  "size": 20,
  "number": 0,
  "sort": {
    "empty": false,
    "sorted": true,
    "unsorted": false
  },
  "first": true,
  "numberOfElements": 20,
  "empty": false
}